{
    "title": "TYPO3 Poll",
    "subtitle": "",
    "logo": "../Resources/Public/Icons/Extension.svg",
    "markdown": "../Readme.en.md",
    "meta": {
        "description": "TYPO3 Poll - ",
        "abstract": "Create polls/surveys/Umfragen in TYPO3. Multiple question types and answer layouts. There is also a PRO version available which adds custom user answers and more. (Umfrage, Poll, Opinion, Vote, SimplePoll)",
        "keywords": "TYPO3, extension, Poll, Survey, Umfrage",
        "og:title": "TYPO3 Poll",
        "og:description": "TYPO3 Poll - "
    },
    "pages": [
        {
            "title": "Installation",
            "markdown": "Installation.en.md"
        },
        {
            "title": "Question types and layouts for answer options",
            "markdown": "Fragetypen.en.md"
        },
        {
            "title": "Data records/model",
            "markdown": "Model.en.md"
        },
        {
            "title": "Available plugins",
            "markdown": "Plugins.en.md"
        },
        {
            "title": "RealURL",
            "markdown": "RealUrl.en.md"
        }
    ]
}
